%YAML 1.1
%TAG !u! tag:unity3d.com,2011:
--- !u!95 &676457176374891539
Animator:
  serializedVersion: 3
  m_ObjectHideFlags: 0
  m_CorrespondingSourceObject: {fileID: 0}
  m_PrefabInstance: {fileID: 0}
  m_PrefabAsset: {fileID: 0}
  m_GameObject: {fileID: 8265292636314314405}
  m_Enabled: 1
  m_Avatar: {fileID: 0}
  m_Controller: {fileID: 9100000, guid: c164969b099ede248b00cfc8fd13ed29, type: 2}
  m_CullingMode: 0
  m_UpdateMode: 0
  m_ApplyRootMotion: 0
  m_LinearVelocityBlending: 0
  m_WarningMessage: 
  m_HasTransformHierarchy: 1
  m_AllowConstantClipSamplingOptimization: 1
  m_KeepAnimatorControllerStateOnDisable: 0
--- !u!1001 &7922768964839488245
PrefabInstance:
  m_ObjectHideFlags: 0
  serializedVersion: 2
  m_Modification:
    m_TransformParent: {fileID: 0}
    m_Modifications:
    - target: {fileID: -7295752697120457305, guid: 94138cbf6cd3b4b45a74958a40d9e46a, type: 3}
      propertyPath: m_Pitch
      value: 1
      objectReference: {fileID: 0}
    - target: {fileID: -7295752697120457305, guid: 94138cbf6cd3b4b45a74958a40d9e46a, type: 3}
      propertyPath: Priority
      value: 129
      objectReference: {fileID: 0}
    - target: {fileID: -7295752697120457305, guid: 94138cbf6cd3b4b45a74958a40d9e46a, type: 3}
      propertyPath: m_audioClip
      value: 
      objectReference: {fileID: 8300000, guid: 93556ffba29808f47b155aaa0360e32b, type: 3}
    - target: {fileID: 2253879785188334668, guid: 94138cbf6cd3b4b45a74958a40d9e46a, type: 3}
      propertyPath: minDamage
      value: 10
      objectReference: {fileID: 0}
    - target: {fileID: 2253879785188334668, guid: 94138cbf6cd3b4b45a74958a40d9e46a, type: 3}
      propertyPath: maxDamage
      value: 15
      objectReference: {fileID: 0}
    - target: {fileID: 2253879785188334668, guid: 94138cbf6cd3b4b45a74958a40d9e46a, type: 3}
      propertyPath: initialForce
      value: 2
      objectReference: {fileID: 0}
    - target: {fileID: 2253879785188334672, guid: 94138cbf6cd3b4b45a74958a40d9e46a, type: 3}
      propertyPath: m_Name
      value: Bomb
      objectReference: {fileID: 0}
    - target: {fileID: 2253879785188334673, guid: 94138cbf6cd3b4b45a74958a40d9e46a, type: 3}
      propertyPath: m_LocalPosition.x
      value: 0
      objectReference: {fileID: 0}
    - target: {fileID: 2253879785188334673, guid: 94138cbf6cd3b4b45a74958a40d9e46a, type: 3}
      propertyPath: m_LocalPosition.y
      value: 0
      objectReference: {fileID: 0}
    - target: {fileID: 2253879785188334673, guid: 94138cbf6cd3b4b45a74958a40d9e46a, type: 3}
      propertyPath: m_LocalPosition.z
      value: 0
      objectReference: {fileID: 0}
    - target: {fileID: 2253879785188334673, guid: 94138cbf6cd3b4b45a74958a40d9e46a, type: 3}
      propertyPath: m_LocalRotation.x
      value: 0
      objectReference: {fileID: 0}
    - target: {fileID: 2253879785188334673, guid: 94138cbf6cd3b4b45a74958a40d9e46a, type: 3}
      propertyPath: m_LocalRotation.y
      value: 0
      objectReference: {fileID: 0}
    - target: {fileID: 2253879785188334673, guid: 94138cbf6cd3b4b45a74958a40d9e46a, type: 3}
      propertyPath: m_LocalRotation.z
      value: 0
      objectReference: {fileID: 0}
    - target: {fileID: 2253879785188334673, guid: 94138cbf6cd3b4b45a74958a40d9e46a, type: 3}
      propertyPath: m_LocalRotation.w
      value: 1
      objectReference: {fileID: 0}
    - target: {fileID: 2253879785188334673, guid: 94138cbf6cd3b4b45a74958a40d9e46a, type: 3}
      propertyPath: m_RootOrder
      value: 0
      objectReference: {fileID: 0}
    - target: {fileID: 2253879785188334673, guid: 94138cbf6cd3b4b45a74958a40d9e46a, type: 3}
      propertyPath: m_LocalEulerAnglesHint.x
      value: 0
      objectReference: {fileID: 0}
    - target: {fileID: 2253879785188334673, guid: 94138cbf6cd3b4b45a74958a40d9e46a, type: 3}
      propertyPath: m_LocalEulerAnglesHint.y
      value: 0
      objectReference: {fileID: 0}
    - target: {fileID: 2253879785188334673, guid: 94138cbf6cd3b4b45a74958a40d9e46a, type: 3}
      propertyPath: m_LocalEulerAnglesHint.z
      value: 0
      objectReference: {fileID: 0}
    - target: {fileID: 2253879785188334674, guid: 94138cbf6cd3b4b45a74958a40d9e46a, type: 3}
      propertyPath: m_Offset.x
      value: 0.0032770634
      objectReference: {fileID: 0}
    - target: {fileID: 2253879785188334674, guid: 94138cbf6cd3b4b45a74958a40d9e46a, type: 3}
      propertyPath: m_Size.x
      value: 0.25770998
      objectReference: {fileID: 0}
    - target: {fileID: 2253879785188334674, guid: 94138cbf6cd3b4b45a74958a40d9e46a, type: 3}
      propertyPath: m_Offset.y
      value: 0.0010920763
      objectReference: {fileID: 0}
    - target: {fileID: 2253879785188334674, guid: 94138cbf6cd3b4b45a74958a40d9e46a, type: 3}
      propertyPath: m_Size.y
      value: 0.25272512
      objectReference: {fileID: 0}
    - target: {fileID: 2253879785188334675, guid: 94138cbf6cd3b4b45a74958a40d9e46a, type: 3}
      propertyPath: m_Mass
      value: 1
      objectReference: {fileID: 0}
    - target: {fileID: 2253879785188334675, guid: 94138cbf6cd3b4b45a74958a40d9e46a, type: 3}
      propertyPath: m_LinearDrag
      value: 0
      objectReference: {fileID: 0}
    - target: {fileID: 2253879785188334675, guid: 94138cbf6cd3b4b45a74958a40d9e46a, type: 3}
      propertyPath: m_Constraints
      value: 0
      objectReference: {fileID: 0}
    - target: {fileID: 3699772940362822548, guid: 94138cbf6cd3b4b45a74958a40d9e46a, type: 3}
      propertyPath: m_Sprite
      value: 
      objectReference: {fileID: -1483665779731714255, guid: 0dcd62e379607b344a4617cc43c569e9, type: 3}
    m_RemovedComponents: []
  m_SourcePrefab: {fileID: 100100000, guid: 94138cbf6cd3b4b45a74958a40d9e46a, type: 3}
--- !u!1 &8265292636314314405 stripped
GameObject:
  m_CorrespondingSourceObject: {fileID: 2253879785188334672, guid: 94138cbf6cd3b4b45a74958a40d9e46a, type: 3}
  m_PrefabInstance: {fileID: 7922768964839488245}
  m_PrefabAsset: {fileID: 0}
