%YAML 1.1
%TAG !u! tag:unity3d.com,2011:
--- !u!1001 &8746036676552914343
PrefabInstance:
  m_ObjectHideFlags: 0
  serializedVersion: 2
  m_Modification:
    m_TransformParent: {fileID: 0}
    m_Modifications:
    - target: {fileID: -7295752697120457305, guid: 94138cbf6cd3b4b45a74958a40d9e46a, type: 3}
      propertyPath: m_Pitch
      value: 0.6
      objectReference: {fileID: 0}
    - target: {fileID: -7295752697120457305, guid: 94138cbf6cd3b4b45a74958a40d9e46a, type: 3}
      propertyPath: Priority
      value: 128
      objectReference: {fileID: 0}
    - target: {fileID: -7295752697120457305, guid: 94138cbf6cd3b4b45a74958a40d9e46a, type: 3}
      propertyPath: m_Volume
      value: 0.6
      objectReference: {fileID: 0}
    - target: {fileID: 2253879785188334672, guid: 94138cbf6cd3b4b45a74958a40d9e46a, type: 3}
      propertyPath: m_Name
      value: LaserRed
      objectReference: {fileID: 0}
    - target: {fileID: 2253879785188334673, guid: 94138cbf6cd3b4b45a74958a40d9e46a, type: 3}
      propertyPath: m_LocalPosition.x
      value: 0
      objectReference: {fileID: 0}
    - target: {fileID: 2253879785188334673, guid: 94138cbf6cd3b4b45a74958a40d9e46a, type: 3}
      propertyPath: m_LocalPosition.y
      value: 0
      objectReference: {fileID: 0}
    - target: {fileID: 2253879785188334673, guid: 94138cbf6cd3b4b45a74958a40d9e46a, type: 3}
      propertyPath: m_LocalPosition.z
      value: 0
      objectReference: {fileID: 0}
    - target: {fileID: 2253879785188334673, guid: 94138cbf6cd3b4b45a74958a40d9e46a, type: 3}
      propertyPath: m_LocalRotation.x
      value: 0
      objectReference: {fileID: 0}
    - target: {fileID: 2253879785188334673, guid: 94138cbf6cd3b4b45a74958a40d9e46a, type: 3}
      propertyPath: m_LocalRotation.y
      value: 0
      objectReference: {fileID: 0}
    - target: {fileID: 2253879785188334673, guid: 94138cbf6cd3b4b45a74958a40d9e46a, type: 3}
      propertyPath: m_LocalRotation.z
      value: 0
      objectReference: {fileID: 0}
    - target: {fileID: 2253879785188334673, guid: 94138cbf6cd3b4b45a74958a40d9e46a, type: 3}
      propertyPath: m_LocalRotation.w
      value: 1
      objectReference: {fileID: 0}
    - target: {fileID: 2253879785188334673, guid: 94138cbf6cd3b4b45a74958a40d9e46a, type: 3}
      propertyPath: m_RootOrder
      value: 0
      objectReference: {fileID: 0}
    - target: {fileID: 2253879785188334673, guid: 94138cbf6cd3b4b45a74958a40d9e46a, type: 3}
      propertyPath: m_LocalEulerAnglesHint.x
      value: 0
      objectReference: {fileID: 0}
    - target: {fileID: 2253879785188334673, guid: 94138cbf6cd3b4b45a74958a40d9e46a, type: 3}
      propertyPath: m_LocalEulerAnglesHint.y
      value: 0
      objectReference: {fileID: 0}
    - target: {fileID: 2253879785188334673, guid: 94138cbf6cd3b4b45a74958a40d9e46a, type: 3}
      propertyPath: m_LocalEulerAnglesHint.z
      value: 0
      objectReference: {fileID: 0}
    - target: {fileID: 3699772940362822548, guid: 94138cbf6cd3b4b45a74958a40d9e46a, type: 3}
      propertyPath: m_Color.r
      value: 1
      objectReference: {fileID: 0}
    - target: {fileID: 3699772940362822548, guid: 94138cbf6cd3b4b45a74958a40d9e46a, type: 3}
      propertyPath: m_Color.g
      value: 0.48713708
      objectReference: {fileID: 0}
    - target: {fileID: 3699772940362822548, guid: 94138cbf6cd3b4b45a74958a40d9e46a, type: 3}
      propertyPath: m_Color.b
      value: 0.40943396
      objectReference: {fileID: 0}
    m_RemovedComponents: []
  m_SourcePrefab: {fileID: 100100000, guid: 94138cbf6cd3b4b45a74958a40d9e46a, type: 3}
