%YAML 1.1
%TAG !u! tag:unity3d.com,2011:
--- !u!1001 &9207100604469747878
PrefabInstance:
  m_ObjectHideFlags: 0
  serializedVersion: 2
  m_Modification:
    m_TransformParent: {fileID: 0}
    m_Modifications:
    - target: {fileID: 716375800567519685, guid: 9ddcceaf4bba88248bfa8a32685df2cb, type: 3}
      propertyPath: m_Name
      value: PowerUpMultishot
      objectReference: {fileID: 0}
    - target: {fileID: 716375800567519686, guid: 9ddcceaf4bba88248bfa8a32685df2cb, type: 3}
      propertyPath: m_LocalPosition.x
      value: 0
      objectReference: {fileID: 0}
    - target: {fileID: 716375800567519686, guid: 9ddcceaf4bba88248bfa8a32685df2cb, type: 3}
      propertyPath: m_LocalPosition.y
      value: 0
      objectReference: {fileID: 0}
    - target: {fileID: 716375800567519686, guid: 9ddcceaf4bba88248bfa8a32685df2cb, type: 3}
      propertyPath: m_LocalPosition.z
      value: 0
      objectReference: {fileID: 0}
    - target: {fileID: 716375800567519686, guid: 9ddcceaf4bba88248bfa8a32685df2cb, type: 3}
      propertyPath: m_LocalRotation.x
      value: 0
      objectReference: {fileID: 0}
    - target: {fileID: 716375800567519686, guid: 9ddcceaf4bba88248bfa8a32685df2cb, type: 3}
      propertyPath: m_LocalRotation.y
      value: 0
      objectReference: {fileID: 0}
    - target: {fileID: 716375800567519686, guid: 9ddcceaf4bba88248bfa8a32685df2cb, type: 3}
      propertyPath: m_LocalRotation.z
      value: 0
      objectReference: {fileID: 0}
    - target: {fileID: 716375800567519686, guid: 9ddcceaf4bba88248bfa8a32685df2cb, type: 3}
      propertyPath: m_LocalRotation.w
      value: 1
      objectReference: {fileID: 0}
    - target: {fileID: 716375800567519686, guid: 9ddcceaf4bba88248bfa8a32685df2cb, type: 3}
      propertyPath: m_RootOrder
      value: 0
      objectReference: {fileID: 0}
    - target: {fileID: 716375800567519686, guid: 9ddcceaf4bba88248bfa8a32685df2cb, type: 3}
      propertyPath: m_LocalEulerAnglesHint.x
      value: 0
      objectReference: {fileID: 0}
    - target: {fileID: 716375800567519686, guid: 9ddcceaf4bba88248bfa8a32685df2cb, type: 3}
      propertyPath: m_LocalEulerAnglesHint.y
      value: 0
      objectReference: {fileID: 0}
    - target: {fileID: 716375800567519686, guid: 9ddcceaf4bba88248bfa8a32685df2cb, type: 3}
      propertyPath: m_LocalEulerAnglesHint.z
      value: 0
      objectReference: {fileID: 0}
    - target: {fileID: 716375800567519687, guid: 9ddcceaf4bba88248bfa8a32685df2cb, type: 3}
      propertyPath: extraShots
      value: 1
      objectReference: {fileID: 0}
    - target: {fileID: 716375800567519687, guid: 9ddcceaf4bba88248bfa8a32685df2cb, type: 3}
      propertyPath: fireCooldownReduction
      value: 0
      objectReference: {fileID: 0}
    - target: {fileID: 716375801119565453, guid: 9ddcceaf4bba88248bfa8a32685df2cb, type: 3}
      propertyPath: m_Sprite
      value: 
      objectReference: {fileID: 21300000, guid: 6ed95f7722fa9344cabb772f226b2f99, type: 3}
    m_RemovedComponents: []
  m_SourcePrefab: {fileID: 100100000, guid: 9ddcceaf4bba88248bfa8a32685df2cb, type: 3}
